<svg width="50" height="50" xmlns="http://www.w3.org/2000/svg">
    <g>
        <ellipse ry="24" rx="24" id="svg_1" cy="25.24051" cx="25.01266" stroke-width="1.5" stroke="#00007f"
                 fill="#7f7fff"/>
        <path id="svg_2" d="m37.60292,20.53724c-0.11844,-4.95554 -4.20523,-8.93639 -9.23063,-8.93891c-3.3596,0.00253 -6.29384,1.78273 -7.90616,4.44168c-0.75776,-0.41285 -1.63014,-0.65401 -2.55982,-0.65401c-2.9024,0.00253 -5.26355,2.28144 -5.36925,5.13357c-3.04758,0.99237 -5.25337,3.81924 -5.25591,7.17891c0,4.1816 3.422,7.57535 7.64125,7.57535l0,-0.00253l20.21749,0c4.21797,0 7.64125,-3.39376 7.64125,-7.57535c-0.00509,-3.33063 -2.17267,-6.14487 -5.17823,-7.15871l0.00001,0zm-2.46558,12.21147l-20.21621,0c-2.81326,-0.00758 -5.09035,-2.26377 -5.09544,-5.05024c-0.00255,-2.50366 1.84663,-4.5692 4.26637,-4.96565c0.33749,-0.05429 0.63932,-0.23989 0.83672,-0.5227c0.1974,-0.28029 0.26999,-0.62749 0.20758,-0.96207c-0.03566,-0.18812 -0.05731,-0.36362 -0.05731,-0.53533c0.00509,-1.54663 1.26718,-2.79909 2.82726,-2.80162c0.82398,0 1.5499,0.35099 2.0797,0.92294c0.29674,0.32448 0.74756,0.47346 1.18058,0.39139c0.43555,-0.08333 0.79724,-0.38887 0.95261,-0.79667c0.95388,-2.51502 3.39017,-4.30785 6.25437,-4.30532c3.69072,0.00505 6.67846,2.96828 6.68737,6.62843c0,0.20201 -0.01146,0.41033 -0.03311,0.62622c-0.06368,0.65401 0.38844,1.24235 1.03667,1.3623c2.36751,0.43558 4.1683,2.48219 4.16576,4.95302c-0.00637,2.79151 -2.27965,5.04771 -5.0929,5.05528l-0.00001,0.00001l-0.00001,0.00001z" fill="#ffff00" stroke="#ffff00"/>
    </g>
</svg>