<svg width="50" height="50" xmlns="http://www.w3.org/2000/svg">
    <g>
        <ellipse ry="24" rx="24" id="svg_1" cy="25.24051" cx="25.01266" stroke-width="1.5" stroke="#00007f"
                 fill="#7f7fff"/>
        <path id="svg_3"
              d="m16.65878,21.85366c1.98241,3.43648 2.36943,4.48009 1.71397,4.62182c-1.28039,0.27686 -1.02309,1.86026 0.76903,4.73257c2.24751,3.60219 6.6497,5.81427 10.78471,5.41926c1.60497,-0.15332 3.41947,-0.46974 4.03221,-0.70316c0.61274,-0.23342 0.23674,0.20142 -0.83556,0.96631c-5.36423,3.82641 -11.98929,3.55987 -17.27466,-0.69499c-2.10737,-1.6965 -5.00679,-6.65319 -5.00679,-8.55936c0,-0.54 -0.47801,-1.06325 -1.06225,-1.16276c-0.95545,-0.16274 -0.82714,-0.59123 1.27625,-4.2619c1.28618,-2.24454 2.4969,-4.24198 2.6905,-4.43876c0.1936,-0.19678 1.50427,1.63966 2.9126,4.08098l0,0zm17.04054,6.62511c-1.98241,-3.43648 -2.36943,-4.4801 -1.71398,-4.62182c1.28039,-0.27685 1.0231,-1.86026 -0.76902,-4.73257c-2.24751,-3.60219 -6.64971,-5.81427 -10.78471,-5.41926c-1.60497,0.15332 -3.41946,0.46974 -4.0322,0.70316c-0.61274,0.23342 -0.23674,-0.20142 0.83555,-0.96631c5.36423,-3.82641 11.9893,-3.55987 17.27466,0.69499c2.10737,1.69649 5.00679,6.65319 5.00679,8.55936c0,0.54001 0.47802,1.06325 1.06225,1.16276c0.95546,0.16274 0.82714,0.59123 -1.27624,4.2619c-1.28617,2.24454 -2.4969,4.24198 -2.6905,4.43876c-0.1936,0.19678 -1.50427,-1.63966 -2.9126,-4.08098l0,0z"
              stroke-width="1.5" stroke="#ffff00" fill="#ffff00"/>
    </g>
</svg>